EXPLORATORY DATA VISUALIZATION (EDA) & VISUALIZATION – TESS VU - MUSA 5080 PORTFOLIO
…
Code

# Plot 4: Data reliability by population
income_moe_pct = (county_data$median_incomeM / county_data$median_incomeE) * 100

county_reliability

# A tibble: 67 × 11
   GEOID NAME    total_popE total_popM median_incomeE median_incomeM median_ageE
   <chr> <chr>        <dbl>      <dbl>          <dbl>          <dbl>       <dbl>
 1 42001 Adams …     104604         NA          78975           3334        43.8
 2 42003 Allegh…    1245310         NA          72537            869        40.6
 3 42005 Armstr…      65538         NA          61011           2202        47  
 4 42007 Beaver…     167629         NA          67194           1531        44.9
 5 42009 Bedfor…      47613         NA          58337           2606        47.3
 6 42011 Berks …     428483         NA          74617           1191        39.9
 7 42013 Blair …     122640         NA          59386           2058        42.9
 8 42015 Bradfo…      60159         NA          60650           2167        43.9
 9 42017 Bucks …     645163         NA         107826           1516        44  
10 42019 Butler…     194562         NA          82932           2164        43.4
# ℹ 57 more rows
# ℹ 4 more variables: median_ageM <dbl>, county_name <chr>, age_moe_pct <dbl>,
#   pop_category <chr>
…
