Assignment 1: Census Data Quality for Policy Decisions – TESS VU - MUSA 5080 PORTFOLIO
…
# Add readable tract and county name columns using str_extract() or similar
tract_level <- tract_level %>%
  separate(
    col = NAME,
    into = c("TRACT", "COUNTY", "STATE"),
    sep = ";"
  )

tract_level

# A tibble: 255 × 15
   GEOID      TRACT COUNTY STATE whiteE whiteM blackE blackM hispanicE hispanicM
   <chr>      <chr> <chr>  <chr>  <dbl>  <dbl>  <dbl>  <dbl>     <dbl>     <dbl>
 1 490299701… Cens… " Mor… " Ut…   5822    369     64     70       214       116
 2 490299701… Cens… " Mor… " Ut…   4031    362      5     10       159       118
 3 490299702… Cens… " Mor… " Ut…   1679    232      0     12         6        12
 4 490319601… Cens… " Piu… " Ut…   1674    134      3      7        75        57
 5 490351001… Cens… " Sal… " Ut…   1853    370    119    125       663       384
 6 490351002… Cens… " Sal… " Ut…   1150    228     13     16       115        65
 7 490351003… Cens… " Sal… " Ut…   1358    329    216    124      3319      1218
 8 490351003… Cens… " Sal… " Ut…   1371    267     85    107      2603       475
 9 490351003… Cens… " Sal… " Ut…    812    231    364    230      2358       454
10 490351005… Cens… " Sal… " Ut…   2788    617    102    115      2010       730
# ℹ 245 more rows
# ℹ 5 more variables: totalE <dbl>, totalM <dbl>, `White Percentage` <dbl>,
#   `Black Percentage` <dbl>, `Hispanic Percentage` <dbl>
…
